…
Result <- EOM_datevec %>%
  map_df(~Roll_optimizer(return_mat, EOM_date = ., LookBackSel = 36))

Result
```

    ## # A tibble: 3,107 × 7
    ##    Tickers            mv minvol    erc riskeff date       Look_Back_Period
    ##    <chr>           <dbl>  <dbl>  <dbl>   <dbl> <date>                <dbl>
    ##  1 ADXY_Index     0.0769 0.0769 0.0769  0.0769 2001-12-31               36
    ##  2 BCOMTR_Index   0.0769 0.0769 0.0769  0.0769 2001-12-31               36
    ##  3 DXY_Index      0.0769 0.0769 0.0769  0.0769 2001-12-31               36
    ##  4 LEATTREU_Index 0.0769 0.0769 0.0769  0.0769 2001-12-31               36
    ##  5 LGAGTRUH_Index 0.0769 0.0769 0.0769  0.0769 2001-12-31               36
    ##  6 LGCPTRUH_Index 0.0769 0.0769 0.0769  0.0769 2001-12-31               36
    ##  7 LP05TREH_Index 0.0769 0.0769 0.0769  0.0769 2001-12-31               36
    ##  8 LUACTRUU_Index 0.0769 0.0769 0.0769  0.0769 2001-12-31               36
    ##  9 LUAGTRUU_Index 0.0769 0.0769 0.0769  0.0769 2001-12-31               36
    ## 10 MSCI_ACWI      0.0769 0.0769 0.0769  0.0769 2001-12-31               36
    ## # ℹ 3,097 more rows
